UART_DV.sim/sim_1/behav/xsim/dump.vcd
$date
   Mon Sep  8 19:54:58 2025
$end

$version
  2023.2
  $dumpfile ("dump.vcd") 
$end

$timescale
  1ps
$end

$scope module tb $end
$var reg 32 ! env $end
$scope module vif $end
$var reg 1 " clk $end
$var reg 1 # uclktx $end
$var reg 1 $ uclkrx $end
$var reg 1 % rst $end
$var reg 1 & rx $end
$var reg 8 ' dintx [7:0] $end
$var reg 1 ( newd $end
$var reg 1 ) tx $end
$var reg 8 * doutrx [7:0] $end
$var reg 1 + donetx $end
$var reg 1 , donerx $end
$upscope $end
$scope module dut $end
$var wire 1 - clk $end
$var wire 1 . rst $end
$var wire 1 / rx $end
$var wire 8 0 dintx [7:0] $end
$var wire 1 1 newd $end
$var wire 1 2 tx $end
$var wire 8 3 doutrx [7:0] $end
$var wire 1 4 donetx $end
$var wire 1 5 donerx $end
$scope module utx $end
$var wire 1 - clk $end
$var wire 1 . rst $end
$var wire 1 1 newd $end
$var wire 8 0 tx_data [7:0] $end
$var reg 1 6 tx $end
$var reg 1 7 donetx $end
$var integer 32 8 count [31:0] $end
$var integer 32 9 counts [31:0] $end
$var reg 1 : uclk $end
$var reg 2 ; state $end
$var reg 8 < din [7:0] $end
$upscope $end
$scope module rtx $end
$var wire 1 - clk $end
$var wire 1 . rst $end
$var wire 1 / rx $end
$var reg 1 = done $end
$var reg 8 > rxdata [7:0] $end
$var integer 32 ? count [31:0] $end
$var integer 32 @ counts [31:0] $end
$var reg 1 A uclk $end
$var reg 2 B state $end
$upscope $end
$upscope $end
$upscope $end
$enddefinitions $end

#0
$dumpvars
b100001110001000000000000111000 !
0"
0#
0$
1%
1&
b0 '
0(
x)
bx *
x+
x,
0-
1.
1/
b0 0
01
x2
bx 3
x4
x5
x6
x7
b0 8
b0 9
0:
b0 ;
bx <
x=
bx >
b0 ?
b0 @
0A
b0 B
$end

#10000
1"
1-
b1 8
b1 ?

#20000
0"
0-

#30000
1"
1-
b10 8
b10 ?

#40000
0"
0-

#50000
1"
1-
b11 8
b11 ?

#60000
0"
0-

#70000
1"
1-
b100 8
b100 ?

#80000
0"
0-

#90000
1"
1-
b101 8
b101 ?

#100000
0"
0-

#110000
1"
1-
b110 8
b110 ?

#120000
0"
0-

#130000
1"
1-
b111 8
b111 ?

#140000
0"
0-

#150000
1"
1-
b1000 8
b1000 ?

#160000
0"
0-

#170000
1"
1-
b1001 8
b1001 ?

#180000
0"
0-

#190000
1"
1-
b1010 8
b1010 ?

#200000
0"
0-

#210000
1"
1-
b1011 8
b1011 ?

#220000
0"
0-

#230000
1"
1-
b1100 8
b1100 ?

#240000
0"
0-

#250000
1"
1-
b1101 8
b1101 ?

#260000
0"
0-

#270000
1"
1-
b1110 8
b1110 ?

#280000
0"
0-

#290000
1"
1-
b1111 8
b1111 ?

#300000
0"
0-

#310000
1"
1-
b10000 8
b10000 ?

#320000
0"
0-

#330000
1"
1-
b10001 8
b10001 ?

#340000
0"
0-

#350000
1"
1-
b10010 8
b10010 ?

#360000
0"
0-

#370000
1"
1-
b10011 8
b10011 ?

#380000
0"
0-

#390000
1"
1-
b10100 8
b10100 ?

#400000
0"
0-

#410000
1"
1-
b10101 8
b10101 ?

#420000
0"
0-

#430000
1"
1-
b10110 8
b10110 ?

#440000
0"
0-

#450000
1"
1-
b10111 8
b10111 ?

#460000
0"
0-

#470000
1"
1-
b11000 8
b11000 ?

#480000
0"
0-

#490000
1"
1-
b11001 8
b11001 ?

#500000
0"
0-

#510000
1"
1-
b11010 8
b11010 ?

#520000
0"
0-

#530000
1"
1-
b11011 8
b11011 ?

#540000
0"
0-

#550000
1"
1-
b11100 8
b11100 ?

#560000
0"
0-

#570000
1"
1-
b11101 8
b11101 ?

#580000
0"
0-

#590000
1"
1-
b11110 8
b11110 ?

#600000
0"
0-

#610000
1"
1-
b11111 8
b11111 ?

#620000
0"
0-

#630000
1"
1-
b100000 8
b100000 ?

#640000
0"
0-

#650000
1"
1-
b100001 8
b100001 ?

#660000
0"
0-

#670000
1"
1-
b100010 8
b100010 ?

#680000
0"
0-

#690000
1"
1-
b100011 8
b100011 ?

#700000
0"
0-

#710000
1"
1-
b100100 8
b100100 ?

#720000
0"
0-

#730000
1"
1-
b100101 8
b100101 ?

#740000
0"
0-

#750000
1"
1-
b100110 8
b100110 ?

#760000
0"
0-

#770000
1"
1-
b100111 8
b100111 ?

#780000
0"
0-

#790000
1"
1-
b101000 8
b101000 ?

#800000
0"
0-

#810000
1"
1-
b101001 8
b101001 ?

#820000
0"
0-

#830000
1"
1-
b101010 8
b101010 ?

#840000
0"
0-

#850000
1"
1-
b101011 8
b101011 ?

#860000
0"
0-

#870000
1"
1-
b101100 8
b101100 ?

#880000
0"
0-

#890000
1"
1-
b101101 8
b101101 ?

#900000
0"
0-

#910000
1"
1-
b101110 8
b101110 ?

#920000
0"
0-

#930000
1"
1-
b101111 8
b101111 ?

#940000
0"
0-

#950000
1"
1-
b110000 8
b110000 ?

#960000
0"
0-

#970000
1"
1-
b110001 8
b110001 ?

#980000
0"
0-

#990000
1"
1-
b110010 8
b110010 ?

#1000000
0"
0-

#1010000
1"
1-
b110011 8
b110011 ?

#1020000
0"
0-

#1030000
1"
1-
b110100 8
b110100 ?

#1040000
0"
0-

#1050000
1"
1#
1$
b0 *
0,
1-
b0 3
05
b0 8
1:
0=
b0 >
b0 ?
1A

#1060000
0"
0-

#1070000
1"
1-
b1 8
b1 ?

#1080000
0"
0-

#1090000
1"
1-
b10 8
b10 ?

#1100000
0"
0-

#1110000
1"
1-
b11 8
b11 ?

#1120000
0"
0-

#1130000
1"
1-
b100 8
b100 ?

#1140000
0"
0-

#1150000
1"
1-
b101 8
b101 ?

#1160000
0"
0-

#1170000
1"
1-
b110 8
b110 ?

#1180000
0"
0-

#1190000
1"
1-
b111 8
b111 ?

#1200000
0"
0-

#1210000
1"
1-
b1000 8
b1000 ?

#1220000
0"
0-

#1230000
1"
1-
b1001 8
b1001 ?

#1240000
0"
0-

#1250000
1"
1-
b1010 8
b1010 ?

#1260000
0"
0-

#1270000
1"
1-
b1011 8
b1011 ?

#1280000
0"
0-

#1290000
1"
1-
b1100 8
b1100 ?

#1300000
0"
0-

#1310000
1"
1-
b1101 8
b1101 ?

#1320000
0"
0-

#1330000
1"
1-
b1110 8
b1110 ?

#1340000
0"
0-

#1350000
1"
1-
b1111 8
b1111 ?

#1360000
0"
0-

#1370000
1"
1-
b10000 8
b10000 ?

#1380000
0"
0-

#1390000
1"
1-
b10001 8
b10001 ?

#1400000
0"
0-

#1410000
1"
1-
b10010 8
b10010 ?

#1420000
0"
0-

#1430000
1"
1-
b10011 8
b10011 ?

#1440000
0"
0-

#1450000
1"
1-
b10100 8
b10100 ?

#1460000
0"
0-

#1470000
1"
1-
b10101 8
b10101 ?

#1480000
0"
0-

#1490000
1"
1-
b10110 8
b10110 ?

#1500000
0"
0-

#1510000
1"
1-
b10111 8
b10111 ?

#1520000
0"
0-

#1530000
1"
1-
b11000 8
b11000 ?

#1540000
0"
0-

#1550000
1"
1-
b11001 8
b11001 ?

#1560000
0"
0-

#1570000
1"
1-
b11010 8
b11010 ?

#1580000
0"
0-

#1590000
1"
1-
b11011 8
b11011 ?

#1600000
0"
0-

#1610000
1"
1-
b11100 8
b11100 ?

#1620000
0"
0-

#1630000
1"
1-
b11101 8
b11101 ?

#1640000
0"
0-

#1650000
1"
1-
b11110 8
b11110 ?

#1660000
0"
0-

#1670000
1"
1-
b11111 8
b11111 ?

#1680000
0"
0-

#1690000
1"
1-
b100000 8
b100000 ?

#1700000
0"
0-

#1710000
1"
1-
b100001 8
b100001 ?

#1720000
0"
0-

#1730000
1"
1-
b100010 8
b100010 ?

#1740000
0"
0-

#1750000
1"
1-
b100011 8
b100011 ?

#1760000
0"
0-

#1770000
1"
1-
b100100 8
b100100 ?

#1780000
0"
0-

#1790000
1"
1-
b100101 8
b100101 ?

#1800000
0"
0-

#1810000
1"
1-
b100110 8
b100110 ?

#1820000
0"
0-

#1830000
1"
1-
b100111 8
b100111 ?

#1840000
0"
0-

#1850000
1"
1-
b101000 8
b101000 ?

#1860000
0"
0-

#1870000
1"
1-
b101001 8
b101001 ?

#1880000
0"
0-

#1890000
1"
1-
b101010 8
b101010 ?

#1900000
0"
0-

#1910000
1"
1-
b101011 8
b101011 ?

#1920000
0"
0-

#1930000
1"
1-
b101100 8
b101100 ?

#1940000
0"
0-

#1950000
1"
1-
b101101 8
b101101 ?

#1960000
0"
0-

#1970000
1"
1-
b101110 8
b101110 ?

#1980000
0"
0-

#1990000
1"
1-
b101111 8
b101111 ?

#2000000
0"
0-

#2010000
1"
1-
b110000 8
b110000 ?

#2020000
0"
0-

#2030000
1"
1-
b110001 8
b110001 ?

#2040000
0"
0-

#2050000
1"
1-
b110010 8
b110010 ?

#2060000
0"
0-

#2070000
1"
1-
b110011 8
b110011 ?

#2080000
0"
0-

#2090000
1"
1-
b110100 8
b110100 ?

#2100000
0"
0-

#2110000
1"
0#
0$
1-
b0 8
0:
b0 ?
0A

#2120000
0"
0-

#2130000
1"
1-
b1 8
b1 ?

#2140000
0"
0-

#2150000
1"
1-
b10 8
b10 ?

#2160000
0"
0-

#2170000
1"
1-
b11 8
b11 ?

#2180000
0"
0-

#2190000
1"
1-
b100 8
b100 ?

#2200000
0"
0-

#2210000
1"
1-
b101 8
b101 ?

#2220000
0"
0-

#2230000
1"
1-
b110 8
b110 ?

#2240000
0"
0-

#2250000
1"
1-
b111 8
b111 ?

#2260000
0"
0-

#2270000
1"
1-
b1000 8
b1000 ?

#2280000
0"
0-

#2290000
1"
1-
b1001 8
b1001 ?

#2300000
0"
0-

#2310000
1"
1-
b1010 8
b1010 ?

#2320000
0"
0-

#2330000
1"
1-
b1011 8
b1011 ?

#2340000
0"
0-

#2350000
1"
1-
b1100 8
b1100 ?

#2360000
0"
0-

#2370000
1"
1-
b1101 8
b1101 ?

#2380000
0"
0-

#2390000
1"
1-
b1110 8
b1110 ?

#2400000
0"
0-

#2410000
1"
1-
b1111 8
b1111 ?

#2420000
0"
0-

#2430000
1"
1-
b10000 8
b10000 ?

#2440000
0"
0-

#2450000
1"
1-
b10001 8
b10001 ?

#2460000
0"
0-

#2470000
1"
1-
b10010 8
b10010 ?

#2480000
0"
0-

#2490000
1"
1-
b10011 8
b10011 ?

#2500000
0"
0-

#2510000
1"
1-
b10100 8
b10100 ?

#2520000
0"
0-

#2530000
1"
1-
b10101 8
b10101 ?

#2540000
0"
0-

#2550000
1"
1-
b10110 8
b10110 ?

#2560000
0"
0-

#2570000
1"
1-
b10111 8
b10111 ?

#2580000
0"
0-

#2590000
1"
1-
b11000 8
b11000 ?

#2600000
0"
0-

#2610000
1"
1-
b11001 8
b11001 ?

#2620000
0"
0-

#2630000
1"
1-
b11010 8
b11010 ?

#2640000
0"
0-

#2650000
1"
1-
b11011 8
b11011 ?

#2660000
0"
0-

#2670000
1"
1-
b11100 8
b11100 ?

#2680000
0"
0-

#2690000
1"
1-
b11101 8
b11101 ?

#2700000
0"
0-

#2710000
1"
1-
b11110 8
b11110 ?

#2720000
0"
0-

#2730000
1"
1-
b11111 8
b11111 ?

#2740000
0"
0-

#2750000
1"
1-
b100000 8
b100000 ?

#2760000
0"
0-

#2770000
1"
1-
b100001 8
b100001 ?

#2780000
0"
0-

#2790000
1"
1-
b100010 8
b100010 ?

#2800000
0"
0-

#2810000
1"
1-
b100011 8
b100011 ?

#2820000
0"
0-

#2830000
1"
1-
b100100 8
b100100 ?

#2840000
0"
0-

#2850000
1"
1-
b100101 8
b100101 ?

#2860000
0"
0-

#2870000
1"
1-
b100110 8
b100110 ?

#2880000
0"
0-

#2890000
1"
1-
b100111 8
b100111 ?

#2900000
0"
0-

#2910000
1"
1-
b101000 8
b101000 ?

#2920000
0"
0-

#2930000
1"
1-
b101001 8
b101001 ?

#2940000
0"
0-

#2950000
1"
1-
b101010 8
b101010 ?

#2960000
0"
0-

#2970000
1"
1-
b101011 8
b101011 ?

#2980000
0"
0-

#2990000
1"
1-
b101100 8
b101100 ?

#3000000
0"
0-

#3010000
1"
1-
b101101 8
b101101 ?

#3020000
0"
0-

#3030000
1"
1-
b101110 8
b101110 ?

#3040000
0"
0-

#3050000
1"
1-
b101111 8
b101111 ?

#3060000
0"
0-

#3070000
1"
1-
b110000 8
b110000 ?

#3080000
0"
0-

#3090000
1"
1-
b110001 8
b110001 ?

#3100000
0"
0-

#3110000
1"
1-
b110010 8
b110010 ?

#3120000
0"
0-

#3130000
1"
1-
b110011 8
b110011 ?

#3140000
0"
0-

#3150000
1"
1-
b110100 8
b110100 ?

#3160000
0"
0-

#3170000
1"
1#
1$
1-
b0 8
1:
b0 ?
1A

#3180000
0"
0-

#3190000
1"
1-
b1 8
b1 ?

#3200000
0"
0-

#3210000
1"
1-
b10 8
b10 ?

#3220000
0"
0-

#3230000
1"
1-
b11 8
b11 ?

#3240000
0"
0-

#3250000
1"
1-
b100 8
b100 ?

#3260000
0"
0-

#3270000
1"
1-
b101 8
b101 ?

#3280000
0"
0-

#3290000
1"
1-
b110 8
b110 ?

#3300000
0"
0-

#3310000
1"
1-
b111 8
b111 ?

#3320000
0"
0-

#3330000
1"
1-
b1000 8
b1000 ?

#3340000
0"
0-

#3350000
1"
1-
b1001 8
b1001 ?

#3360000
0"
0-

#3370000
1"
1-
b1010 8
b1010 ?

#3380000
0"
0-

#3390000
1"
1-
b1011 8
b1011 ?

#3400000
0"
0-

#3410000
1"
1-
b1100 8
b1100 ?

#3420000
0"
0-

#3430000
1"
1-
b1101 8
b1101 ?

#3440000
0"
0-

#3450000
1"
1-
b1110 8
b1110 ?

#3460000
0"
0-

#3470000
1"
1-
b1111 8
b1111 ?

#3480000
0"
0-

#3490000
1"
1-
b10000 8
b10000 ?

#3500000
0"
0-

#3510000
1"
1-
b10001 8
b10001 ?

#3520000
0"
0-

#3530000
1"
1-
b10010 8
b10010 ?

#3540000
0"
0-

#3550000
1"
1-
b10011 8
b10011 ?

#3560000
0"
0-

#3570000
1"
1-
b10100 8
b10100 ?

#3580000
0"
0-

#3590000
1"
1-
b10101 8
b10101 ?

#3600000
0"
0-

#3610000
1"
1-
b10110 8
b10110 ?

#3620000
0"
0-

#3630000
1"
1-
b10111 8
b10111 ?

#3640000
0"
0-

#3650000
1"
1-
b11000 8
b11000 ?

#3660000
0"
0-

#3670000
1"
1-
b11001 8
b11001 ?

#3680000
0"
0-

#3690000
1"
1-
b11010 8
b11010 ?

#3700000
0"
0-

#3710000
1"
1-
b11011 8
b11011 ?

#3720000
0"
0-

#3730000
1"
1-
b11100 8
b11100 ?

#3740000
0"
0-

#3750000
1"
1-
b11101 8
b11101 ?

#3760000
0"
0-

#3770000
1"
1-
b11110 8
b11110 ?

#3780000
0"
0-

#3790000
1"
1-
b11111 8
b11111 ?

#3800000
0"
0-

#3810000
1"
1-
b100000 8
b100000 ?

#3820000
0"
0-

#3830000
1"
1-
b100001 8
b100001 ?

#3840000
0"
0-

#3850000
1"
1-
b100010 8
b100010 ?

#3860000
0"
0-

#3870000
1"
1-
b100011 8
b100011 ?

#3880000
0"
0-

#3890000
1"
1-
b100100 8
b100100 ?

#3900000
0"
0-

#3910000
1"
1-
b100101 8
b100101 ?

#3920000
0"
0-

#3930000
1"
1-
b100110 8
b100110 ?

#3940000
0"
0-

#3950000
1"
1-
b100111 8
b100111 ?

#3960000
0"
0-

#3970000
1"
1-
b101000 8
b101000 ?

#3980000
0"
0-

#3990000
1"
1-
b101001 8
b101001 ?

#4000000
0"
0-

#4010000
1"
1-
b101010 8
b101010 ?

#4020000
0"
0-

#4030000
1"
1-
b101011 8
b101011 ?

#4040000
0"
0-

#4050000
1"
1-
b101100 8
b101100 ?

#4060000
0"
0-

#4070000
1"
1-
b101101 8
b101101 ?

#4080000
0"
0-

#4090000
1"
1-
b101110 8
b101110 ?

#4100000
0"
0-

#4110000
1"
1-
b101111 8
b101111 ?

#4120000
0"
0-

#4130000
1"
1-
b110000 8
b110000 ?

#4140000
0"
0-

#4150000
1"
1-
b110001 8
b110001 ?

#4160000
0"
0-

#4170000
1"
1-
b110010 8
b110010 ?

#4180000
0"
0-

#4190000
1"
1-
b110011 8
b110011 ?

#4200000
0"
0-

#4210000
1"
1-
b110100 8
b110100 ?

#4220000
0"
0-

#4230000
1"
0#
0$
1-
b0 8
0:
b0 ?
0A

#4240000
0"
0-

#4250000
1"
1-
b1 8
b1 ?

#4260000
0"
0-

#4270000
1"
1-
b10 8
b10 ?

#4280000
0"
0-

#4290000
1"
1-
b11 8
b11 ?

#4300000
0"
0-

#4310000
1"
1-
b100 8
b100 ?

#4320000
0"
0-

#4330000
1"
1-
b101 8
b101 ?

#4340000
0"
0-

#4350000
1"
1-
b110 8
b110 ?

#4360000
0"
0-

#4370000
1"
1-
b111 8
b111 ?

#4380000
0"
0-

#4390000
1"
1-
b1000 8
b1000 ?

#4400000
0"
0-

#4410000
1"
1-
b1001 8
b1001 ?

#4420000
0"
0-

#4430000
1"
1-
b1010 8
b1010 ?

#4440000
0"
0-

#4450000
1"
1-
b1011 8
b1011 ?

#4460000
0"
0-

#4470000
1"
1-
b1100 8
b1100 ?

#4480000
0"
0-

#4490000
1"
1-
b1101 8
b1101 ?

#4500000
0"
0-

#4510000
1"
1-
b1110 8
b1110 ?

#4520000
0"
0-

#4530000
1"
1-
b1111 8
b1111 ?

#4540000
0"
0-

#4550000
1"
1-
b10000 8
b10000 ?

#4560000
0"
0-

#4570000
1"
1-
b10001 8
b10001 ?

#4580000
0"
0-

#4590000
1"
1-
b10010 8
b10010 ?

#4600000
0"
0-

#4610000
1"
1-
b10011 8
b10011 ?

#4620000
0"
0-

#4630000
1"
1-
b10100 8
b10100 ?

#4640000
0"
0-

#4650000
1"
1-
b10101 8
b10101 ?

#4660000
0"
0-

#4670000
1"
1-
b10110 8
b10110 ?

#4680000
0"
0-

#4690000
1"
1-
b10111 8
b10111 ?

#4700000
0"
0-

#4710000
1"
1-
b11000 8
b11000 ?

#4720000
0"
0-

#4730000
1"
1-
b11001 8
b11001 ?

#4740000
0"
0-

#4750000
1"
1-
b11010 8
b11010 ?

#4760000
0"
0-

#4770000
1"
1-
b11011 8
b11011 ?

#4780000
0"
0-

#4790000
1"
1-
b11100 8
b11100 ?

#4800000
0"
0-

#4810000
1"
1-
b11101 8
b11101 ?

#4820000
0"
0-

#4830000
1"
1-
b11110 8
b11110 ?

#4840000
0"
0-

#4850000
1"
1-
b11111 8
b11111 ?

#4860000
0"
0-

#4870000
1"
1-
b100000 8
b100000 ?

#4880000
0"
0-

#4890000
1"
1-
b100001 8
b100001 ?

#4900000
0"
0-

#4910000
1"
1-
b100010 8
b100010 ?

#4920000
0"
0-

#4930000
1"
1-
b100011 8
b100011 ?

#4940000
0"
0-

#4950000
1"
1-
b100100 8
b100100 ?

#4960000
0"
0-

#4970000
1"
1-
b100101 8
b100101 ?

#4980000
0"
0-

#4990000
1"
1-
b100110 8
b100110 ?

#5000000
0"
0-

#5010000
1"
1-
b100111 8
b100111 ?

#5020000
0"
0-

#5030000
1"
1-
b101000 8
b101000 ?

#5040000
0"
0-

#5050000
1"
1-
b101001 8
b101001 ?

#5060000
0"
0-

#5070000
1"
1-
b101010 8
b101010 ?

#5080000
0"
0-

#5090000
1"
1-
b101011 8
b101011 ?

#5100000
0"
0-

#5110000
1"
1-
b101100 8
b101100 ?

#5120000
0"
0-

#5130000
1"
1-
b101101 8
b101101 ?

#5140000
0"
0-

#5150000
1"
1-
b101110 8
b101110 ?

#5160000
0"
0-

#5170000
1"
1-
b101111 8
b101111 ?

#5180000
0"
0-

#5190000
1"
1-
b110000 8
b110000 ?

#5200000
0"
0-

#5210000
1"
1-
b110001 8
b110001 ?

#5220000
0"
0-

#5230000
1"
1-
b110010 8
b110010 ?

#5240000
0"
0-

#5250000
1"
1-
b110011 8
b110011 ?

#5260000
0"
0-

#5270000
1"
1-
b110100 8
b110100 ?

#5280000
0"
0-

#5290000
1"
1#
1$
1-
b0 8
1:
b0 ?
1A

#5300000
0"
0-

#5310000
1"
1-
b1 8
b1 ?

#5320000
0"
0-

#5330000
1"
1-
b10 8
b10 ?

#5340000
0"
0-

#5350000
1"
1-
b11 8
b11 ?

#5360000
0"
0-

#5370000
1"
1-
b100 8
b100 ?

#5380000
0"
0-

#5390000
1"
1-
b101 8
b101 ?

#5400000
0"
0-

#5410000
1"
1-
b110 8
b110 ?

#5420000
0"
0-

#5430000
1"
1-
b111 8
b111 ?

#5440000
0"
0-

#5450000
1"
1-
b1000 8
b1000 ?

#5460000
0"
0-

#5470000
1"
1-
b1001 8
b1001 ?

#5480000
0"
0-

#5490000
1"
1-
b1010 8
b1010 ?

#5500000
0"
0-

#5510000
1"
1-
b1011 8
b1011 ?

#5520000
0"
0-

#5530000
1"
1-
b1100 8
b1100 ?

#5540000
0"
0-

#5550000
1"
1-
b1101 8
b1101 ?

#5560000
0"
0-

#5570000
1"
1-
b1110 8
b1110 ?

#5580000
0"
0-

#5590000
1"
1-
b1111 8
b1111 ?

#5600000
0"
0-

#5610000
1"
1-
b10000 8
b10000 ?

#5620000
0"
0-

#5630000
1"
1-
b10001 8
b10001 ?

#5640000
0"
0-

#5650000
1"
1-
b10010 8
b10010 ?

#5660000
0"
0-

#5670000
1"
1-
b10011 8
b10011 ?

#5680000
0"
0-

#5690000
1"
1-
b10100 8
b10100 ?

#5700000
0"
0-

#5710000
1"
1-
b10101 8
b10101 ?

#5720000
0"
0-

#5730000
1"
1-
b10110 8
b10110 ?

#5740000
0"
0-

#5750000
1"
1-
b10111 8
b10111 ?

#5760000
0"
0-

#5770000
1"
1-
b11000 8
b11000 ?

#5780000
0"
0-

#5790000
1"
1-
b11001 8
b11001 ?

#5800000
0"
0-

#5810000
1"
1-
b11010 8
b11010 ?

#5820000
0"
0-

#5830000
1"
1-
b11011 8
b11011 ?

#5840000
0"
0-

#5850000
1"
1-
b11100 8
b11100 ?

#5860000
0"
0-

#5870000
1"
1-
b11101 8
b11101 ?

#5880000
0"
0-

#5890000
1"
1-
b11110 8
b11110 ?

#5900000
0"
0-

#5910000
1"
1-
b11111 8
b11111 ?

#5920000
0"
0-

#5930000
1"
1-
b100000 8
b100000 ?

#5940000
0"
0-

#5950000
1"
1-
b100001 8
b100001 ?

#5960000
0"
0-

#5970000
1"
1-
b100010 8
b100010 ?

#5980000
0"
0-

#5990000
1"
1-
b100011 8
b100011 ?

#6000000
0"
0-

#6010000
1"
1-
b100100 8
b100100 ?

#6020000
0"
0-

#6030000
1"
1-
b100101 8
b100101 ?

#6040000
0"
0-

#6050000
1"
1-
b100110 8
b100110 ?

#6060000
0"
0-

#6070000
1"
1-
b100111 8
b100111 ?

#6080000
0"
0-

#6090000
1"
1-
b101000 8
b101000 ?

#6100000
0"
0-

#6110000
1"
1-
b101001 8
b101001 ?

#6120000
0"
0-

#6130000
1"
1-
b101010 8
b101010 ?

#6140000
0"
0-

#6150000
1"
1-
b101011 8
b101011 ?

#6160000
0"
0-

#6170000
1"
1-
b101100 8
b101100 ?

#6180000
0"
0-

#6190000
1"
1-
b101101 8
b101101 ?

#6200000
0"
0-

#6210000
1"
1-
b101110 8
b101110 ?

#6220000
0"
0-

#6230000
1"
1-
b101111 8
b101111 ?

#6240000
0"
0-

#6250000
1"
1-
b110000 8
b110000 ?

#6260000
0"
0-

#6270000
1"
1-
b110001 8
b110001 ?

#6280000
0"
0-

#6290000
1"
1-
b110010 8
b110010 ?

#6300000
0"
0-

#6310000
1"
1-
b110011 8
b110011 ?

#6320000
0"
0-

#6330000
1"
1-
b110100 8
b110100 ?

#6340000
0"
0-

#6350000
1"
0#
0$
1-
b0 8
0:
b0 ?
0A

#6360000
0"
0-

#6370000
1"
1-
b1 8
b1 ?

#6380000
0"
0-

#6390000
1"
1-
b10 8
b10 ?

#6400000
0"
0-

#6410000
1"
1-
b11 8
b11 ?

#6420000
0"
0-

#6430000
1"
1-
b100 8
b100 ?

#6440000
0"
0-

#6450000
1"
1-
b101 8
b101 ?

#6460000
0"
0-

#6470000
1"
1-
b110 8
b110 ?

#6480000
0"
0-

#6490000
1"
1-
b111 8
b111 ?

#6500000
0"
0-

#6510000
1"
1-
b1000 8
b1000 ?

#6520000
0"
0-

#6530000
1"
1-
b1001 8
b1001 ?

#6540000
0"
0-

#6550000
1"
1-
b1010 8
b1010 ?

#6560000
0"
0-

#6570000
1"
1-
b1011 8
b1011 ?

#6580000
0"
0-

#6590000
1"
1-
b1100 8
b1100 ?

#6600000
0"
0-

#6610000
1"
1-
b1101 8
b1101 ?

#6620000
0"
0-

#6630000
1"
1-
b1110 8
b1110 ?

#6640000
0"
0-

#6650000
1"
1-
b1111 8
b1111 ?

#6660000
0"
0-

#6670000
1"
1-
b10000 8
b10000 ?

#6680000
0"
0-

#6690000
1"
1-
b10001 8
b10001 ?

#6700000
0"
0-

#6710000
1"
1-
b10010 8
b10010 ?

#6720000
0"
0-

#6730000
1"
1-
b10011 8
b10011 ?

#6740000
0"
0-

#6750000
1"
1-
b10100 8
b10100 ?

#6760000
0"
0-

#6770000
1"
1-
b10101 8
b10101 ?

#6780000
0"
0-

#6790000
1"
1-
b10110 8
b10110 ?

#6800000
0"
0-

#6810000
1"
1-
b10111 8
b10111 ?

#6820000
0"
0-

#6830000
1"
1-
b11000 8
b11000 ?

#6840000
0"
0-

#6850000
1"
1-
b11001 8
b11001 ?

#6860000
0"
0-

#6870000
1"
1-
b11010 8
b11010 ?

#6880000
0"
0-

#6890000
1"
1-
b11011 8
b11011 ?

#6900000
0"
0-

#6910000
1"
1-
b11100 8
b11100 ?

#6920000
0"
0-

#6930000
1"
1-
b11101 8
b11101 ?

#6940000
0"
0-

#6950000
1"
1-
b11110 8
b11110 ?

#6960000
0"
0-

#6970000
1"
1-
b11111 8
b11111 ?

#6980000
0"
0-

#6990000
1"
1-
b100000 8
b100000 ?

#7000000
0"
0-

#7010000
1"
1-
b100001 8
b100001 ?

#7020000
0"
0-

#7030000
1"
1-
b100010 8
b100010 ?

#7040000
0"
0-

#7050000
1"
1-
b100011 8
b100011 ?

#7060000
0"
0-

#7070000
1"
1-
b100100 8
b100100 ?

#7080000
0"
0-

#7090000
1"
1-
b100101 8
b100101 ?

#7100000
0"
0-

#7110000
1"
1-
b100110 8
b100110 ?

#7120000
0"
0-

#7130000
1"
1-
b100111 8
b100111 ?

#7140000
0"
0-

#7150000
1"
1-
b101000 8
b101000 ?

#7160000
0"
0-

#7170000
1"
1-
b101001 8
b101001 ?

#7180000
0"
0-

#7190000
1"
1-
b101010 8
b101010 ?

#7200000
0"
0-

#7210000
1"
1-
b101011 8
b101011 ?

#7220000
0"
0-

#7230000
1"
1-
b101100 8
b101100 ?

#7240000
0"
0-

#7250000
1"
1-
b101101 8
b101101 ?

#7260000
0"
0-

#7270000
1"
1-
b101110 8
b101110 ?

#7280000
0"
0-

#7290000
1"
1-
b101111 8
b101111 ?

#7300000
0"
0-

#7310000
1"
1-
b110000 8
b110000 ?

#7320000
0"
0-

#7330000
1"
1-
b110001 8
b110001 ?

#7340000
0"
0-

#7350000
1"
1-
b110010 8
b110010 ?

#7360000
0"
0-

#7370000
1"
1-
b110011 8
b110011 ?

#7380000
0"
0-

#7390000
1"
1-
b110100 8
b110100 ?

#7400000
0"
0-

#7410000
1"
1#
1$
1-
b0 8
1:
b0 ?
1A

#7420000
0"
0-

#7430000
1"
1-
b1 8
b1 ?

#7440000
0"
0-

#7450000
1"
1-
b10 8
b10 ?

#7460000
0"
0-

#7470000
1"
1-
b11 8
b11 ?

#7480000
0"
0-

#7490000
1"
1-
b100 8
b100 ?

#7500000
0"
0-

#7510000
1"
1-
b101 8
b101 ?

#7520000
0"
0-

#7530000
1"
1-
b110 8
b110 ?

#7540000
0"
0-

#7550000
1"
1-
b111 8
b111 ?

#7560000
0"
0-

#7570000
1"
1-
b1000 8
b1000 ?

#7580000
0"
0-

#7590000
1"
1-
b1001 8
b1001 ?

#7600000
0"
0-

#7610000
1"
1-
b1010 8
b1010 ?

#7620000
0"
0-

#7630000
1"
1-
b1011 8
b1011 ?

#7640000
0"
0-

#7650000
1"
1-
b1100 8
b1100 ?

#7660000
0"
0-

#7670000
1"
1-
b1101 8
b1101 ?

#7680000
0"
0-

#7690000
1"
1-
b1110 8
b1110 ?

#7700000
0"
0-

#7710000
1"
1-
b1111 8
b1111 ?

#7720000
0"
0-

#7730000
1"
1-
b10000 8
b10000 ?

#7740000
0"
0-

#7750000
1"
1-
b10001 8
b10001 ?

#7760000
0"
0-

#7770000
1"
1-
b10010 8
b10010 ?

#7780000
0"
0-

#7790000
1"
1-
b10011 8
b10011 ?

#7800000
0"
0-

#7810000
1"
1-
b10100 8
b10100 ?

#7820000
0"
0-

#7830000
1"
1-
b10101 8
b10101 ?

#7840000
0"
0-

#7850000
1"
1-
b10110 8
b10110 ?

#7860000
0"
0-

#7870000
1"
1-
b10111 8
b10111 ?

#7880000
0"
0-

#7890000
1"
1-
b11000 8
b11000 ?

#7900000
0"
0-

#7910000
1"
1-
b11001 8
b11001 ?

#7920000
0"
0-

#7930000
1"
1-
b11010 8
b11010 ?

#7940000
0"
0-

#7950000
1"
1-
b11011 8
b11011 ?

#7960000
0"
0-

#7970000
1"
1-
b11100 8
b11100 ?

#7980000
0"
0-

#7990000
1"
1-
b11101 8
b11101 ?

#8000000
0"
0-

#8010000
1"
1-
b11110 8
b11110 ?

#8020000
0"
0-

#8030000
1"
1-
b11111 8
b11111 ?

#8040000
0"
0-

#8050000
1"
1-
b100000 8
b100000 ?

#8060000
0"
0-

#8070000
1"
1-
b100001 8
b100001 ?

#8080000
0"
0-

